<?xml version="1.0" encoding="utf-8"?>
<!-- Generator: Adobe Illustrator 16.0.0, SVG Export Plug-In . SVG Version: 6.00 Build 0)  -->
<!DOCTYPE svg PUBLIC "-//W3C//DTD SVG 1.1//EN" "http://www.w3.org/Graphics/SVG/1.1/DTD/svg11.dtd">
<svg version="1.1" id="Layer_1" xmlns="http://www.w3.org/2000/svg" xmlns:xlink="http://www.w3.org/1999/xlink" x="0px" y="0px"
	 width="57.179px" height="86.842px" viewBox="0 0 57.179 86.842" enable-background="new 0 0 57.179 86.842" xml:space="preserve">
<g>
	<g>
		<path fill="#0C0C0C" d="M52.93,43.42c0-0.258,0-1.51,0-2.785V2.319C52.93,1.043,51.887,0,50.612,0H6.905
			C5.629,0,4.586,1.043,4.586,2.319v38.315c0,1.275,0,2.527,0,2.785c0,0.256,0,1.508,0,2.784v38.319
			c0,1.275,1.043,2.318,2.318,2.318h43.707c1.275,0,2.318-1.043,2.318-2.318V46.204C52.93,44.928,52.93,43.676,52.93,43.42z"/>
	</g>
	<g>
		<linearGradient id="SVGID_1_" gradientUnits="userSpaceOnUse" x1="28.7114" y1="2.7739" x2="28.7114" y2="43.106">
			<stop  offset="0" style="stop-color:#EB0029"/>
			<stop  offset="0.3063" style="stop-color:#E90028"/>
			<stop  offset="0.4797" style="stop-color:#E00026"/>
			<stop  offset="0.62" style="stop-color:#D30022"/>
			<stop  offset="0.7425" style="stop-color:#BF011C"/>
			<stop  offset="0.8523" style="stop-color:#A60114"/>
			<stop  offset="0.9467" style="stop-color:#89020C"/>
		</linearGradient>
		<path fill="url(#SVGID_1_)" d="M50.891,43.105V4.941c0-1.192-0.975-2.167-2.167-2.167H8.699c-1.192,0-2.167,0.975-2.167,2.167
			v38.165"/>
	</g>
	<g>
		<path fill="#EB0029" d="M6.579,43.969v38.167c0,1.192,0.975,2.167,2.167,2.167h40.025c1.192,0,2.167-0.975,2.167-2.167V43.969"/>
	</g>
	<g>
		<rect x="6.532" y="43.305" opacity="0.7" fill="#0E0E0E" width="44.34" height="0.453"/>
		<rect x="6.532" y="43.143" opacity="0.6588" fill="#0E0E0E" width="44.34" height="0.52"/>
		<rect x="6.532" y="42.979" opacity="0.6176" fill="#0E0E0E" width="44.34" height="0.587"/>
		<rect x="6.532" y="42.816" opacity="0.5765" fill="#0E0E0E" width="44.34" height="0.654"/>
		<rect x="6.532" y="42.654" opacity="0.5353" fill="#0E0E0E" width="44.34" height="0.721"/>
		<rect x="6.532" y="42.491" opacity="0.4941" fill="#0E0E0E" width="44.34" height="0.787"/>
		<rect x="6.532" y="42.328" opacity="0.4529" fill="#0E0E0E" width="44.34" height="0.854"/>
		<rect x="6.532" y="42.166" opacity="0.4118" fill="#0E0E0E" width="44.34" height="0.92"/>
		<rect x="6.532" y="42.003" opacity="0.3706" fill="#0E0E0E" width="44.34" height="0.987"/>
		<rect x="6.532" y="41.84" opacity="0.3294" fill="#0E0E0E" width="44.34" height="1.055"/>
		<rect x="6.532" y="41.677" opacity="0.2882" fill="#0E0E0E" width="44.34" height="1.121"/>
		<rect x="6.532" y="41.514" opacity="0.2471" fill="#0E0E0E" width="44.34" height="1.188"/>
		<rect x="6.532" y="41.352" opacity="0.2059" fill="#0E0E0E" width="44.34" height="1.254"/>
		<rect x="6.532" y="41.188" opacity="0.1647" fill="#0E0E0E" width="44.34" height="1.321"/>
		<rect x="6.532" y="41.025" opacity="0.1235" fill="#0E0E0E" width="44.34" height="1.389"/>
		<rect x="6.532" y="40.863" opacity="0.0824" fill="#0E0E0E" width="44.34" height="1.454"/>
		<rect x="6.532" y="40.7" opacity="0.0412" fill="#0E0E0E" width="44.34" height="1.521"/>
		<rect x="6.532" y="40.537" opacity="0" fill="#0E0E0E" width="44.34" height="1.588"/>
	</g>
	<linearGradient id="SVGID_2_" gradientUnits="userSpaceOnUse" x1="26.9985" y1="93.1465" x2="26.9985" y2="8.5181">
		<stop  offset="0" style="stop-color:#231F20"/>
		<stop  offset="0.5822" style="stop-color:#FFFFFF"/>
		<stop  offset="0.5828" style="stop-color:#F7F7F7"/>
		<stop  offset="0.5862" style="stop-color:#CCCCCC"/>
		<stop  offset="0.5896" style="stop-color:#ABABAB"/>
		<stop  offset="0.5927" style="stop-color:#939393"/>
		<stop  offset="0.5957" style="stop-color:#858585"/>
		<stop  offset="0.5982" style="stop-color:#808080"/>
		<stop  offset="0.6978" style="stop-color:#AFAFAF"/>
		<stop  offset="0.805" style="stop-color:#DADADA"/>
		<stop  offset="0.8886" style="stop-color:#F5F5F5"/>
		<stop  offset="0.9378" style="stop-color:#FFFFFF"/>
	</linearGradient>
	<path fill="url(#SVGID_2_)" d="M27.04,21.205c-1.354,0.059-2.441,0.705-3.264,1.939c-0.824,1.236-1.236,3.441-1.236,6.617
		l-9.35-1.059c0-5.23,1.264-9.273,3.793-12.127c2.528-2.854,5.91-4.281,10.145-4.281c4.881,0,8.38,1.311,10.497,3.932
		S40.8,22.369,40.8,26.785c0.058,2.709-0.221,5.125-0.838,7.246c-0.618,2.121-1.544,4.389-2.78,6.803L24.746,65.311h15.437v8.91
		H13.718v-8.307c2.647-5.006,5.249-9.998,7.808-14.977c2.559-4.977,5.13-9.969,7.718-14.977c0.823-1.531,1.337-3.047,1.544-4.549
		c0.206-1.504,0.309-3.078,0.309-4.729c0-0.529-0.043-1.119-0.132-1.768s-0.28-1.236-0.573-1.768
		c-0.295-0.529-0.706-0.986-1.234-1.369C28.626,21.396,27.921,21.205,27.04,21.205z"/>
	<g>
		<rect x="6.563" y="44.156" opacity="0.3" fill="#4C4C4C" width="44.34" height="0.453"/>
		<rect x="6.563" y="44.212" opacity="0.2824" fill="#4C4C4C" width="44.34" height="0.52"/>
		<rect x="6.563" y="44.268" opacity="0.2647" fill="#4C4C4C" width="44.34" height="0.586"/>
		<rect x="6.563" y="44.322" opacity="0.2471" fill="#4C4C4C" width="44.34" height="0.653"/>
		<rect x="6.563" y="44.377" opacity="0.2294" fill="#4C4C4C" width="44.34" height="0.721"/>
		<rect x="6.563" y="44.433" opacity="0.2118" fill="#4C4C4C" width="44.34" height="0.787"/>
		<rect x="6.563" y="44.488" opacity="0.1941" fill="#4C4C4C" width="44.34" height="0.854"/>
		<rect x="6.563" y="44.543" opacity="0.1765" fill="#4C4C4C" width="44.34" height="0.92"/>
		<rect x="6.563" y="44.599" opacity="0.1588" fill="#4C4C4C" width="44.34" height="0.987"/>
		<rect x="6.563" y="44.654" opacity="0.1412" fill="#4C4C4C" width="44.34" height="1.053"/>
		<rect x="6.563" y="44.709" opacity="0.1235" fill="#4C4C4C" width="44.34" height="1.12"/>
		<rect x="6.563" y="44.764" opacity="0.1059" fill="#4C4C4C" width="44.34" height="1.188"/>
		<rect x="6.563" y="44.82" opacity="0.0882" fill="#4C4C4C" width="44.34" height="1.253"/>
		<rect x="6.563" y="44.875" opacity="0.0706" fill="#4C4C4C" width="44.34" height="1.32"/>
		<rect x="6.563" y="44.93" opacity="0.0529" fill="#4C4C4C" width="44.34" height="1.388"/>
		<rect x="6.563" y="44.985" opacity="0.0353" fill="#4C4C4C" width="44.34" height="1.454"/>
		<rect x="6.563" y="45.041" opacity="0.0176" fill="#4C4C4C" width="44.34" height="1.521"/>
		<rect x="6.563" y="45.096" opacity="0" fill="#4C4C4C" width="44.34" height="1.588"/>
	</g>
	<rect x="6.548" y="43.361" fill="#0C0C0C" width="46.382" height="0.725"/>
	<g>
		<linearGradient id="SVGID_3_" gradientUnits="userSpaceOnUse" x1="28.8843" y1="39.8711" x2="28.8843" y2="72.4787">
			<stop  offset="0.1027" style="stop-color:#3B3B3B"/>
			<stop  offset="0.4478" style="stop-color:#717171"/>
			<stop  offset="0.7565" style="stop-color:#9B9B9B"/>
			<stop  offset="0.9143" style="stop-color:#ABABAB"/>
		</linearGradient>
		<path fill="url(#SVGID_3_)" d="M51.694,40.691v27.834c0,0.844-0.689,1.533-1.532,1.533H7.608c-0.844,0-1.533-0.689-1.533-1.533
			V40.691"/>
	</g>
	<rect x="48.534" y="35.785" fill="#0C0C0C" width="4.201" height="15.459"/>
	<rect x="4.763" y="35.785" fill="#0C0C0C" width="4.201" height="15.459"/>
	<linearGradient id="SVGID_4_" gradientUnits="userSpaceOnUse" x1="50.2144" y1="36.2461" x2="50.2144" y2="50.9496">
		<stop  offset="0" style="stop-color:#000000"/>
		<stop  offset="0.0556" style="stop-color:#0B0B0B"/>
		<stop  offset="0.1357" style="stop-color:#121212"/>
		<stop  offset="0.3586" style="stop-color:#141414"/>
		<stop  offset="0.8229" style="stop-color:#141313"/>
		<stop  offset="0.8799" style="stop-color:#1B1A1A"/>
		<stop  offset="0.9343" style="stop-color:#262626"/>
		<stop  offset="0.9492" style="stop-color:#242424"/>
		<stop  offset="0.9568" style="stop-color:#1C1C1C"/>
		<stop  offset="0.9627" style="stop-color:#0F0F0F"/>
		<stop  offset="0.9668" style="stop-color:#000000"/>
	</linearGradient>
	<rect x="49.081" y="36.246" fill="url(#SVGID_4_)" width="2.268" height="14.535"/>
	<linearGradient id="SVGID_5_" gradientUnits="userSpaceOnUse" x1="7.2837" y1="36.2461" x2="7.2837" y2="50.9496">
		<stop  offset="0" style="stop-color:#000000"/>
		<stop  offset="0.0556" style="stop-color:#0B0B0B"/>
		<stop  offset="0.1357" style="stop-color:#121212"/>
		<stop  offset="0.3586" style="stop-color:#141414"/>
		<stop  offset="0.8229" style="stop-color:#141313"/>
		<stop  offset="0.8799" style="stop-color:#1B1A1A"/>
		<stop  offset="0.9343" style="stop-color:#262626"/>
		<stop  offset="0.9492" style="stop-color:#242424"/>
		<stop  offset="0.9568" style="stop-color:#1C1C1C"/>
		<stop  offset="0.9627" style="stop-color:#0F0F0F"/>
		<stop  offset="0.9668" style="stop-color:#000000"/>
	</linearGradient>
	<rect x="6.15" y="36.246" fill="url(#SVGID_5_)" width="2.268" height="14.535"/>
	<rect x="49.081" y="36.246" opacity="0.2" fill="#414141" width="0.357" height="14.535"/>
	<rect x="50.95" y="36.246" opacity="0.2" fill="#414141" width="0.357" height="14.535"/>
	<polygon opacity="0.2" fill="#414141" points="6.154,50.781 6.645,50.912 6.645,36.377 6.154,36.246 	"/>
	<rect x="8.024" y="36.246" opacity="0.2" fill="#414141" width="0.356" height="14.535"/>
	
		<radialGradient id="SVGID_6_" cx="-15200.5195" cy="19910.3789" r="322.4753" gradientTransform="matrix(0.1947 0 0 0.0842 2987.5664 -1626.4775)" gradientUnits="userSpaceOnUse">
		<stop  offset="0.0026" style="stop-color:#FF1722"/>
		<stop  offset="0.0498" style="stop-color:#EE1421"/>
		<stop  offset="0.179" style="stop-color:#C70E1F"/>
		<stop  offset="0.3124" style="stop-color:#A6091D"/>
		<stop  offset="0.449" style="stop-color:#8C051B"/>
		<stop  offset="0.59" style="stop-color:#7A021A"/>
		<stop  offset="0.7383" style="stop-color:#700119"/>
		<stop  offset="0.9059" style="stop-color:#6C0019"/>
	</radialGradient>
	<path fill="url(#SVGID_6_)" d="M57.094,17.781c-0.092-0.219-0.252-0.416-0.469-0.584c-0.219-0.168-0.493-0.303-0.811-0.398
		c-0.319-0.094-0.682-0.146-1.073-0.146H2.438c-0.393,0-0.754,0.053-1.073,0.146c-0.317,0.096-0.593,0.23-0.811,0.398
		s-0.378,0.365-0.469,0.584s-0.112,0.457-0.051,0.705l6.01,23.221h2.395l0.438,1.838h39.762l0.439-1.838h2.355l5.711-23.221
		C57.206,18.238,57.184,18,57.094,17.781z"/>
	<polyline fill="none" stroke="#111111" stroke-width="0.5041" stroke-miterlimit="10" points="5.792,41.707 8.439,41.707 
		8.877,43.545 12.451,43.545 48.639,43.545 49.079,41.707 51.686,41.707 	"/>
	<g opacity="0.7">
		<g>
			<linearGradient id="SVGID_7_" gradientUnits="userSpaceOnUse" x1="27.3569" y1="14.7266" x2="27.3569" y2="60.1003">
				<stop  offset="0.0669" style="stop-color:#4D4D4D"/>
				<stop  offset="0.2476" style="stop-color:#505050"/>
				<stop  offset="0.3891" style="stop-color:#5A5A5A"/>
				<stop  offset="0.5172" style="stop-color:#6B6B6B"/>
				<stop  offset="0.6375" style="stop-color:#828282"/>
				<stop  offset="0.7524" style="stop-color:#A0A0A0"/>
				<stop  offset="0.8631" style="stop-color:#C5C5C5"/>
				<stop  offset="0.9685" style="stop-color:#F1F1F1"/>
				<stop  offset="1" style="stop-color:#FFFFFF"/>
			</linearGradient>
			<path fill="url(#SVGID_7_)" d="M27.438,24.602c-1.199,0-2.336,0.063-3.41,0.189c-1.071,0.127-2.078,0.314-3.018,0.566
				c-0.936,0.25-1.805,0.559-2.604,0.93c-0.794,0.369-1.519,0.795-2.173,1.277c-0.649,0.48-1.202,1.006-1.657,1.576
				c-0.452,0.563-0.809,1.168-1.069,1.816c-0.259,0.639-0.425,1.316-0.501,2.033c-0.074,0.707-0.059,1.449,0.043,2.225l9.67,0.621
				c-0.02-0.465-0.012-0.896,0.024-1.297c0.037-0.402,0.103-0.771,0.196-1.107c0.096-0.336,0.22-0.637,0.373-0.902
				c0.154-0.268,0.338-0.498,0.551-0.691s0.445-0.363,0.695-0.512c0.252-0.15,0.523-0.275,0.813-0.379
				c0.29-0.102,0.599-0.182,0.926-0.24c0.328-0.057,0.674-0.088,1.037-0.098c0.238,0,0.463,0.008,0.676,0.023
				s0.414,0.037,0.604,0.068s0.367,0.068,0.531,0.115c0.165,0.045,0.317,0.1,0.457,0.16c0.141,0.061,0.273,0.125,0.398,0.191
				c0.123,0.066,0.24,0.135,0.348,0.207s0.207,0.146,0.299,0.225s0.176,0.158,0.251,0.242c0.075,0.082,0.145,0.168,0.206,0.254
				c0.062,0.088,0.115,0.178,0.162,0.27c0.048,0.092,0.088,0.184,0.121,0.279c0.034,0.096,0.061,0.193,0.08,0.293
				s0.036,0.197,0.05,0.291c0.015,0.094,0.024,0.188,0.033,0.275c0.007,0.09,0.013,0.178,0.016,0.262
				c0.003,0.086,0.003,0.168-0.001,0.246c-0.01,0.248-0.025,0.492-0.049,0.732c-0.022,0.24-0.052,0.475-0.087,0.707
				c-0.035,0.23-0.077,0.457-0.126,0.682c-0.047,0.223-0.101,0.441-0.161,0.656c-0.06,0.215-0.14,0.428-0.237,0.643
				c-0.099,0.213-0.216,0.426-0.352,0.637c-0.135,0.213-0.289,0.424-0.462,0.635c-0.173,0.209-0.363,0.42-0.572,0.629
				c-0.339,0.352-0.675,0.701-1.009,1.049c-0.331,0.346-0.66,0.688-0.986,1.027c-0.325,0.34-0.646,0.674-0.967,1.008
				c-0.317,0.332-0.633,0.66-0.946,0.986h9.991l1.544-1.479c0.331-0.314,0.644-0.625,0.938-0.934
				c0.297-0.311,0.577-0.617,0.838-0.92c0.264-0.307,0.509-0.609,0.735-0.908c0.228-0.301,0.437-0.6,0.628-0.893
				c0.191-0.297,0.363-0.605,0.518-0.926c0.154-0.322,0.29-0.656,0.406-1.004c0.116-0.35,0.213-0.713,0.291-1.088
				c0.078-0.379,0.137-0.771,0.174-1.178c0.088-0.668,0.103-1.311,0.043-1.926c-0.061-0.621-0.197-1.215-0.412-1.777
				c-0.216-0.568-0.511-1.107-0.885-1.611c-0.377-0.51-0.836-0.986-1.374-1.43c-0.543-0.445-1.191-0.838-1.946-1.178
				c-0.758-0.342-1.621-0.627-2.59-0.857c-0.973-0.23-2.049-0.402-3.229-0.52C30.101,24.66,28.819,24.602,27.438,24.602"/>
		</g>
		<g>
			<path fill="#6D6E70" d="M27.438,24.602c-1.199,0-2.336,0.063-3.41,0.189c-1.071,0.127-2.078,0.314-3.018,0.566
				c-0.936,0.25-1.805,0.559-2.604,0.93c-0.794,0.369-1.519,0.795-2.173,1.277c-0.649,0.48-1.202,1.006-1.657,1.576
				c-0.452,0.563-0.809,1.168-1.069,1.816c-0.259,0.639-0.425,1.316-0.501,2.033c-0.074,0.707-0.059,1.449,0.043,2.225l9.67,0.621
				c-0.02-0.465-0.012-0.896,0.024-1.297c0.037-0.402,0.103-0.771,0.196-1.107c0.096-0.336,0.22-0.637,0.373-0.902
				c0.154-0.268,0.338-0.498,0.551-0.691s0.445-0.363,0.695-0.512c0.252-0.15,0.523-0.275,0.813-0.379
				c0.29-0.102,0.599-0.182,0.926-0.24c0.328-0.057,0.674-0.088,1.037-0.098c0.238,0,0.463,0.008,0.676,0.023
				s0.414,0.037,0.604,0.068s0.367,0.068,0.531,0.115c0.165,0.045,0.317,0.1,0.457,0.16c0.141,0.061,0.273,0.125,0.398,0.191
				c0.123,0.066,0.24,0.135,0.348,0.207s0.207,0.146,0.299,0.225s0.176,0.158,0.251,0.242c0.075,0.082,0.145,0.168,0.206,0.254
				c0.062,0.088,0.115,0.178,0.162,0.27c0.048,0.092,0.088,0.184,0.121,0.279c0.034,0.096,0.061,0.193,0.08,0.293
				s0.036,0.197,0.05,0.291c0.015,0.094,0.024,0.188,0.033,0.275c0.007,0.09,0.013,0.178,0.016,0.262
				c0.003,0.086,0.003,0.168-0.001,0.246c-0.01,0.248-0.025,0.492-0.049,0.732c-0.022,0.24-0.052,0.475-0.087,0.707
				c-0.035,0.23-0.077,0.457-0.126,0.682c-0.047,0.223-0.101,0.441-0.161,0.656c-0.06,0.215-0.14,0.428-0.237,0.643
				c-0.099,0.213-0.216,0.426-0.352,0.637c-0.135,0.213-0.289,0.424-0.462,0.635c-0.173,0.209-0.363,0.42-0.572,0.629
				c-0.339,0.352-0.675,0.701-1.009,1.049c-0.331,0.346-0.66,0.688-0.986,1.027c-0.325,0.34-0.646,0.674-0.967,1.008
				c-0.317,0.332-0.633,0.66-0.946,0.986h9.991l1.544-1.479c0.331-0.314,0.644-0.625,0.938-0.934
				c0.297-0.311,0.577-0.617,0.838-0.92c0.264-0.307,0.509-0.609,0.735-0.908c0.228-0.301,0.437-0.6,0.628-0.893
				c0.191-0.297,0.363-0.605,0.518-0.926c0.154-0.322,0.29-0.656,0.406-1.004c0.116-0.35,0.213-0.713,0.291-1.088
				c0.078-0.379,0.137-0.771,0.174-1.178c0.088-0.668,0.103-1.311,0.043-1.926c-0.061-0.621-0.197-1.215-0.412-1.777
				c-0.216-0.568-0.511-1.107-0.885-1.611c-0.377-0.51-0.836-0.986-1.374-1.43c-0.543-0.445-1.191-0.838-1.946-1.178
				c-0.758-0.342-1.621-0.627-2.59-0.857c-0.973-0.23-2.049-0.402-3.229-0.52C30.101,24.66,28.819,24.602,27.438,24.602"/>
		</g>
	</g>
	<path fill="#ADADAD" d="M57.104,17.34c0.006,0.027,0.014,0.055,0.018,0.082c0-0.156-0.047-0.332-0.068-0.486
		c-0.02-0.129-0.027-0.266-0.057-0.393c-0.027-0.25-0.167-0.5-0.34-0.676c-0.513-0.551-1.345-0.725-2.065-0.725
		c-0.233,0-52.023-0.002-52.159,0c-0.605-0.006-1.25,0.174-1.721,0.518c-0.311,0.232-0.527,0.549-0.582,0.939
		c-0.039,0.273-0.077,0.916-0.117,1.191c0.001-0.012,0.004-0.021,0.006-0.033c-0.002,0.014-0.004,0.027-0.006,0.043
		c0.083-0.59,0.617-0.982,1.134-1.182C1.555,16.465,1.996,16.4,2.431,16.4c0.068,0,52.085,0,52.319,0
		c0.161,0,0.323,0.01,0.483,0.027c0.771,0.098,1.807,0.479,1.935,1.371C57.168,17.652,57.127,17.488,57.104,17.34z"/>
	
		<radialGradient id="SVGID_8_" cx="8834.5078" cy="23075.6953" r="207.802" gradientTransform="matrix(0.1947 0 0 0.1947 -1691.4878 -4476.1143)" gradientUnits="userSpaceOnUse">
		<stop  offset="0.0102" style="stop-color:#5C5C5C"/>
		<stop  offset="0.3658" style="stop-color:#5A5A5A"/>
		<stop  offset="0.4938" style="stop-color:#535353"/>
		<stop  offset="0.5848" style="stop-color:#484848"/>
		<stop  offset="0.6582" style="stop-color:#373737"/>
		<stop  offset="0.6612" style="stop-color:#363636"/>
		<stop  offset="0.6658" style="stop-color:#3B3B3B"/>
		<stop  offset="0.6932" style="stop-color:#535353"/>
		<stop  offset="0.71" style="stop-color:#5C5C5C"/>
	</radialGradient>
	<path fill="url(#SVGID_8_)" d="M57.104,17.592c0.006,0.027,0.014,0.053,0.018,0.082c0-0.156-0.047-0.33-0.068-0.486
		c-0.02-0.129-0.027-0.264-0.057-0.393c-0.027-0.248-0.167-0.5-0.34-0.676c-0.513-0.551-1.345-0.725-2.065-0.725
		c-0.233,0-52.071-0.006-52.159,0.002c-0.578-0.027-1.25,0.174-1.721,0.516c-0.311,0.232-0.527,0.549-0.582,0.939
		c-0.039,0.273-0.077,0.916-0.117,1.189c0.001-0.01,0.004-0.021,0.006-0.031c-0.002,0.014-0.004,0.027-0.006,0.043
		c0.083-0.59,0.617-0.982,1.134-1.182c0.408-0.156,0.849-0.219,1.284-0.219c0.068,0,52.085,0,52.319,0
		c0.161,0,0.323,0.01,0.483,0.027c0.771,0.098,1.807,0.479,1.935,1.373C57.168,17.904,57.127,17.74,57.104,17.592z"/>
</g>
</svg>
