<?xml version="1.0" encoding="utf-8"?>
<!-- Generator: Adobe Illustrator 16.0.0, SVG Export Plug-In . SVG Version: 6.00 Build 0)  -->
<!DOCTYPE svg PUBLIC "-//W3C//DTD SVG 1.1//EN" "http://www.w3.org/Graphics/SVG/1.1/DTD/svg11.dtd">
<svg version="1.1" id="Layer_1" xmlns="http://www.w3.org/2000/svg" xmlns:xlink="http://www.w3.org/1999/xlink" x="0px" y="0px"
	 width="57.18px" height="86.842px" viewBox="0 0 57.18 86.842" enable-background="new 0 0 57.18 86.842" xml:space="preserve">
<g>
	<g>
		<path fill="#0C0C0C" d="M52.931,43.42c0-0.258,0-1.51,0-2.785V2.319C52.931,1.043,51.888,0,50.612,0H6.906
			C5.63,0,4.587,1.043,4.587,2.319v38.315c0,1.275,0,2.527,0,2.785c0,0.256,0,1.508,0,2.784v38.319c0,1.275,1.043,2.318,2.318,2.318
			h43.707c1.275,0,2.318-1.043,2.318-2.318V46.204C52.931,44.928,52.931,43.676,52.931,43.42z"/>
	</g>
	<g>
		<path fill="#494949" d="M50.891,43.105V4.94c0-1.191-0.975-2.167-2.167-2.167H8.699c-1.192,0-2.167,0.975-2.167,2.167v38.165"/>
	</g>
	<g>
		<path fill="#EB0029" d="M6.579,43.969v38.167c0,1.192,0.975,2.167,2.167,2.167h40.025c1.192,0,2.167-0.975,2.167-2.167V43.969"/>
	</g>
	<g>
		<linearGradient id="SVGID_1_" gradientUnits="userSpaceOnUse" x1="28.7114" y1="-17.8247" x2="28.7114" y2="53.5327">
			<stop  offset="0" style="stop-color:#EB0029"/>
			<stop  offset="0.3063" style="stop-color:#E90028"/>
			<stop  offset="0.4797" style="stop-color:#E00026"/>
			<stop  offset="0.62" style="stop-color:#D30022"/>
			<stop  offset="0.7425" style="stop-color:#BF011C"/>
			<stop  offset="0.8523" style="stop-color:#A60114"/>
			<stop  offset="0.9467" style="stop-color:#89020C"/>
		</linearGradient>
		<path fill="url(#SVGID_1_)" d="M50.891,43.736V5.572c0-1.192-0.975-2.167-2.167-2.167H8.699c-1.192,0-2.167,0.975-2.167,2.167
			v38.164"/>
	</g>
	<linearGradient id="SVGID_2_" gradientUnits="userSpaceOnUse" x1="28.6309" y1="52.9883" x2="28.6309" y2="11.1892">
		<stop  offset="0" style="stop-color:#231F20"/>
		<stop  offset="0.5822" style="stop-color:#FFFFFF"/>
		<stop  offset="0.5828" style="stop-color:#F7F7F7"/>
		<stop  offset="0.5862" style="stop-color:#CCCCCC"/>
		<stop  offset="0.5896" style="stop-color:#ABABAB"/>
		<stop  offset="0.5927" style="stop-color:#939393"/>
		<stop  offset="0.5957" style="stop-color:#858585"/>
		<stop  offset="0.5982" style="stop-color:#808080"/>
		<stop  offset="0.6978" style="stop-color:#AFAFAF"/>
		<stop  offset="0.805" style="stop-color:#DADADA"/>
		<stop  offset="0.8886" style="stop-color:#F5F5F5"/>
		<stop  offset="0.9378" style="stop-color:#FFFFFF"/>
	</linearGradient>
	<path fill="url(#SVGID_2_)" d="M25.408,23.904c0.822-1.234,1.91-1.881,3.263-1.941c0.882,0,1.588,0.191,2.118,0.576
		c0.529,0.383,0.939,0.838,1.235,1.367c0.293,0.531,0.485,1.121,0.573,1.77s0.132,1.238,0.132,1.768
		c0,1.648-0.104,3.225-0.309,4.727c-0.207,1.504-0.72,3.02-1.543,4.551c-1.329,2.572-2.654,4.355-3.976,6.92h10.477l1.438-2.047
		c1.234-2.414,2.161-4.682,2.778-6.805c0.618-2.119,0.896-4.535,0.838-7.244c0-4.418-1.059-7.936-3.176-10.559
		c-2.117-2.621-5.617-3.932-10.498-3.932c-4.234,0-7.617,1.428-10.145,4.281c-2.529,2.852-3.793,6.895-3.793,12.125l9.351,1.061
		C24.172,27.344,24.583,25.139,25.408,23.904z"/>
	<g>
		<rect x="6.532" y="43.305" opacity="0.7" fill="#0E0E0E" width="44.34" height="0.453"/>
		<rect x="6.532" y="43.143" opacity="0.6588" fill="#0E0E0E" width="44.34" height="0.52"/>
		<rect x="6.532" y="42.979" opacity="0.6176" fill="#0E0E0E" width="44.34" height="0.587"/>
		<rect x="6.532" y="42.816" opacity="0.5765" fill="#0E0E0E" width="44.34" height="0.654"/>
		<rect x="6.532" y="42.654" opacity="0.5353" fill="#0E0E0E" width="44.34" height="0.721"/>
		<rect x="6.532" y="42.491" opacity="0.4941" fill="#0E0E0E" width="44.34" height="0.787"/>
		<rect x="6.532" y="42.328" opacity="0.4529" fill="#0E0E0E" width="44.34" height="0.854"/>
		<rect x="6.532" y="42.166" opacity="0.4118" fill="#0E0E0E" width="44.34" height="0.92"/>
		<rect x="6.532" y="42.003" opacity="0.3706" fill="#0E0E0E" width="44.34" height="0.987"/>
		<rect x="6.532" y="41.84" opacity="0.3294" fill="#0E0E0E" width="44.34" height="1.055"/>
		<rect x="6.532" y="41.677" opacity="0.2882" fill="#0E0E0E" width="44.34" height="1.121"/>
		<rect x="6.532" y="41.514" opacity="0.2471" fill="#0E0E0E" width="44.34" height="1.188"/>
		<rect x="6.532" y="41.352" opacity="0.2059" fill="#0E0E0E" width="44.34" height="1.254"/>
		<rect x="6.532" y="41.188" opacity="0.1647" fill="#0E0E0E" width="44.34" height="1.321"/>
		<rect x="6.532" y="41.025" opacity="0.1235" fill="#0E0E0E" width="44.34" height="1.389"/>
		<rect x="6.532" y="40.863" opacity="0.0824" fill="#0E0E0E" width="44.34" height="1.454"/>
		<rect x="6.532" y="40.7" opacity="0.0412" fill="#0E0E0E" width="44.34" height="1.521"/>
		<rect x="6.532" y="40.537" opacity="0" fill="#0E0E0E" width="44.34" height="1.588"/>
	</g>
	<g>
		<g opacity="0.7">
			<linearGradient id="SVGID_3_" gradientUnits="userSpaceOnUse" x1="25.5352" y1="89.7148" x2="25.5352" y2="15.5762">
				<stop  offset="0" style="stop-color:#424242"/>
				<stop  offset="0.0702" style="stop-color:#626262"/>
				<stop  offset="0.1761" style="stop-color:#8D8D8D"/>
				<stop  offset="0.2792" style="stop-color:#AEAEAE"/>
				<stop  offset="0.3773" style="stop-color:#C6C6C6"/>
				<stop  offset="0.4683" style="stop-color:#D4D4D4"/>
				<stop  offset="0.5452" style="stop-color:#D9D9D9"/>
				<stop  offset="0.5645" style="stop-color:#DFDFDF"/>
				<stop  offset="0.5907" style="stop-color:#F0F0F0"/>
				<stop  offset="0.6072" style="stop-color:#FFFFFF"/>
				<stop  offset="0.6083" style="stop-color:#F7F7F7"/>
				<stop  offset="0.6143" style="stop-color:#CCCCCC"/>
				<stop  offset="0.6201" style="stop-color:#ABABAB"/>
				<stop  offset="0.6257" style="stop-color:#939393"/>
				<stop  offset="0.6309" style="stop-color:#858585"/>
				<stop  offset="0.6352" style="stop-color:#808080"/>
				<stop  offset="0.724" style="stop-color:#AFAFAF"/>
				<stop  offset="0.8195" style="stop-color:#DADADA"/>
				<stop  offset="0.894" style="stop-color:#F5F5F5"/>
				<stop  offset="0.9378" style="stop-color:#FFFFFF"/>
			</linearGradient>
			<path fill="url(#SVGID_3_)" d="M25.006,74.338V23.615l-8.38,6.705V20.088l8.91,3.354h8.91v50.896H25.006z"/>
		</g>
	</g>
	<g>
		<rect x="6.564" y="44.156" opacity="0.3" fill="#4C4C4C" width="44.339" height="0.453"/>
		<rect x="6.564" y="44.212" opacity="0.2824" fill="#4C4C4C" width="44.339" height="0.52"/>
		<rect x="6.564" y="44.268" opacity="0.2647" fill="#4C4C4C" width="44.339" height="0.586"/>
		<rect x="6.564" y="44.322" opacity="0.2471" fill="#4C4C4C" width="44.339" height="0.653"/>
		<rect x="6.564" y="44.377" opacity="0.2294" fill="#4C4C4C" width="44.339" height="0.721"/>
		<rect x="6.564" y="44.433" opacity="0.2118" fill="#4C4C4C" width="44.339" height="0.787"/>
		<rect x="6.564" y="44.488" opacity="0.1941" fill="#4C4C4C" width="44.339" height="0.854"/>
		<rect x="6.564" y="44.543" opacity="0.1765" fill="#4C4C4C" width="44.339" height="0.92"/>
		<rect x="6.564" y="44.599" opacity="0.1588" fill="#4C4C4C" width="44.339" height="0.987"/>
		<rect x="6.564" y="44.654" opacity="0.1412" fill="#4C4C4C" width="44.339" height="1.053"/>
		<rect x="6.564" y="44.709" opacity="0.1235" fill="#4C4C4C" width="44.339" height="1.12"/>
		<rect x="6.564" y="44.764" opacity="0.1059" fill="#4C4C4C" width="44.339" height="1.188"/>
		<rect x="6.564" y="44.82" opacity="0.0882" fill="#4C4C4C" width="44.339" height="1.253"/>
		<rect x="6.564" y="44.875" opacity="0.0706" fill="#4C4C4C" width="44.339" height="1.32"/>
		<rect x="6.564" y="44.93" opacity="0.0529" fill="#4C4C4C" width="44.339" height="1.388"/>
		<rect x="6.564" y="44.985" opacity="0.0353" fill="#4C4C4C" width="44.339" height="1.454"/>
		<rect x="6.564" y="45.041" opacity="0.0176" fill="#4C4C4C" width="44.339" height="1.521"/>
		<rect x="6.564" y="45.096" opacity="0" fill="#4C4C4C" width="44.339" height="1.588"/>
	</g>
	<rect x="6.549" y="43.361" fill="#0C0C0C" width="46.382" height="0.725"/>
	<g>
		<linearGradient id="SVGID_4_" gradientUnits="userSpaceOnUse" x1="28.8848" y1="39.8711" x2="28.8848" y2="72.4787">
			<stop  offset="0.1027" style="stop-color:#3B3B3B"/>
			<stop  offset="0.4478" style="stop-color:#717171"/>
			<stop  offset="0.7565" style="stop-color:#9B9B9B"/>
			<stop  offset="0.9143" style="stop-color:#ABABAB"/>
		</linearGradient>
		<path fill="url(#SVGID_4_)" d="M51.694,40.691l0.001,27.834c0,0.844-0.689,1.533-1.533,1.533H7.608
			c-0.843,0-1.532-0.689-1.532-1.533l0-27.834"/>
	</g>
	<rect x="48.535" y="35.785" fill="#0C0C0C" width="4.2" height="15.459"/>
	<rect x="4.764" y="35.785" fill="#0C0C0C" width="4.2" height="15.459"/>
	<linearGradient id="SVGID_5_" gradientUnits="userSpaceOnUse" x1="50.2148" y1="36.2461" x2="50.2148" y2="50.9496">
		<stop  offset="0" style="stop-color:#000000"/>
		<stop  offset="0.0556" style="stop-color:#0B0B0B"/>
		<stop  offset="0.1357" style="stop-color:#121212"/>
		<stop  offset="0.3586" style="stop-color:#141414"/>
		<stop  offset="0.8229" style="stop-color:#141313"/>
		<stop  offset="0.8799" style="stop-color:#1B1A1A"/>
		<stop  offset="0.9343" style="stop-color:#262626"/>
		<stop  offset="0.9492" style="stop-color:#242424"/>
		<stop  offset="0.9568" style="stop-color:#1C1C1C"/>
		<stop  offset="0.9627" style="stop-color:#0F0F0F"/>
		<stop  offset="0.9668" style="stop-color:#000000"/>
	</linearGradient>
	<rect x="49.081" y="36.246" fill="url(#SVGID_5_)" width="2.269" height="14.535"/>
	<linearGradient id="SVGID_6_" gradientUnits="userSpaceOnUse" x1="7.2842" y1="36.2461" x2="7.2842" y2="50.9496">
		<stop  offset="0" style="stop-color:#000000"/>
		<stop  offset="0.0556" style="stop-color:#0B0B0B"/>
		<stop  offset="0.1357" style="stop-color:#121212"/>
		<stop  offset="0.3586" style="stop-color:#141414"/>
		<stop  offset="0.8229" style="stop-color:#141313"/>
		<stop  offset="0.8799" style="stop-color:#1B1A1A"/>
		<stop  offset="0.9343" style="stop-color:#262626"/>
		<stop  offset="0.9492" style="stop-color:#242424"/>
		<stop  offset="0.9568" style="stop-color:#1C1C1C"/>
		<stop  offset="0.9627" style="stop-color:#0F0F0F"/>
		<stop  offset="0.9668" style="stop-color:#000000"/>
	</linearGradient>
	<rect x="6.15" y="36.246" fill="url(#SVGID_6_)" width="2.269" height="14.535"/>
	<rect x="49.081" y="36.246" opacity="0.2" fill="#414141" width="0.357" height="14.535"/>
	<rect x="50.95" y="36.246" opacity="0.2" fill="#414141" width="0.357" height="14.535"/>
	<rect x="6.155" y="36.246" opacity="0.2" fill="#414141" width="0.357" height="14.535"/>
	<rect x="8.024" y="36.246" opacity="0.2" fill="#414141" width="0.356" height="14.535"/>
	
		<radialGradient id="SVGID_7_" cx="-15780.6621" cy="19910.3789" r="322.4761" gradientTransform="matrix(0.1947 0 0 0.0842 3100.5208 -1626.4775)" gradientUnits="userSpaceOnUse">
		<stop  offset="0.0026" style="stop-color:#FF1722"/>
		<stop  offset="0.0498" style="stop-color:#EE1421"/>
		<stop  offset="0.179" style="stop-color:#C70E1F"/>
		<stop  offset="0.3124" style="stop-color:#A6091D"/>
		<stop  offset="0.449" style="stop-color:#8C051B"/>
		<stop  offset="0.59" style="stop-color:#7A021A"/>
		<stop  offset="0.7383" style="stop-color:#700119"/>
		<stop  offset="0.9059" style="stop-color:#6C0019"/>
	</radialGradient>
	<path fill="url(#SVGID_7_)" d="M57.094,17.781c-0.091-0.219-0.252-0.416-0.469-0.584c-0.218-0.168-0.493-0.303-0.811-0.398
		c-0.319-0.094-0.682-0.146-1.073-0.146H2.438c-0.392,0-0.754,0.053-1.072,0.146c-0.318,0.096-0.593,0.23-0.811,0.398
		c-0.217,0.168-0.378,0.365-0.469,0.584s-0.112,0.457-0.051,0.705l6.01,23.221h2.395l0.439,1.838H48.64l0.438-1.838h2.356
		l5.712-23.221C57.206,18.238,57.185,18,57.094,17.781z"/>
	<polyline fill="none" stroke="#111111" stroke-width="0.5041" stroke-miterlimit="10" points="5.793,41.707 8.439,41.707 
		8.878,43.545 12.451,43.545 48.64,43.545 49.078,41.707 51.687,41.707 	"/>
	<g opacity="0.7">
		<g>
			<g>
				<g>
					<g>
						<linearGradient id="SVGID_8_" gradientUnits="userSpaceOnUse" x1="25.8604" y1="14.9395" x2="25.8603" y2="59.7617">
							<stop  offset="0.0669" style="stop-color:#4D4D4D"/>
							<stop  offset="0.2476" style="stop-color:#505050"/>
							<stop  offset="0.3891" style="stop-color:#5A5A5A"/>
							<stop  offset="0.5172" style="stop-color:#6B6B6B"/>
							<stop  offset="0.6375" style="stop-color:#828282"/>
							<stop  offset="0.7524" style="stop-color:#A0A0A0"/>
							<stop  offset="0.8631" style="stop-color:#C5C5C5"/>
							<stop  offset="0.9685" style="stop-color:#F1F1F1"/>
							<stop  offset="1" style="stop-color:#FFFFFF"/>
						</linearGradient>
						<polyline fill="url(#SVGID_8_)" points="36.043,24.693 25.633,24.693 15.678,29.711 16.262,36.184 25.055,32.033 
							25.115,43.266 34.368,43.266 36.043,24.693 						"/>
					</g>
				</g>
			</g>
		</g>
		<g>
			<g>
				<g enable-background="new    ">
					<g>
						<polyline fill="#6D6E70" points="36.043,24.693 25.633,24.693 15.678,29.711 16.262,36.184 25.055,32.033 25.115,43.266 
							34.368,43.266 36.043,24.693 						"/>
					</g>
				</g>
			</g>
		</g>
	</g>
	<path fill="#ADADAD" d="M57.103,17.34c0.006,0.027,0.014,0.055,0.018,0.082c0-0.156-0.047-0.332-0.069-0.486
		c-0.019-0.129-0.027-0.266-0.056-0.393c-0.027-0.25-0.166-0.5-0.34-0.676c-0.512-0.551-1.344-0.725-2.065-0.725
		c-0.233,0-52.022-0.002-52.159,0C1.825,15.137,1.18,15.316,0.71,15.66c-0.311,0.232-0.527,0.549-0.582,0.939
		c-0.039,0.273-0.078,0.916-0.117,1.191c0.002-0.012,0.004-0.021,0.006-0.033c-0.002,0.014-0.004,0.027-0.006,0.043
		c0.084-0.59,0.617-0.982,1.134-1.182C1.554,16.465,1.994,16.4,2.43,16.4c0.068,0,52.086,0,52.32,0c0.162,0,0.323,0.01,0.483,0.027
		c0.771,0.098,1.807,0.479,1.935,1.371C57.167,17.652,57.126,17.488,57.103,17.34z"/>
	
		<radialGradient id="SVGID_9_" cx="8254.3555" cy="23075.6953" r="207.8048" gradientTransform="matrix(0.1947 0 0 0.1947 -1578.5332 -4476.1143)" gradientUnits="userSpaceOnUse">
		<stop  offset="0.0102" style="stop-color:#5C5C5C"/>
		<stop  offset="0.3658" style="stop-color:#5A5A5A"/>
		<stop  offset="0.4938" style="stop-color:#535353"/>
		<stop  offset="0.5848" style="stop-color:#484848"/>
		<stop  offset="0.6582" style="stop-color:#373737"/>
		<stop  offset="0.6612" style="stop-color:#363636"/>
		<stop  offset="0.6658" style="stop-color:#3B3B3B"/>
		<stop  offset="0.6932" style="stop-color:#535353"/>
		<stop  offset="0.71" style="stop-color:#5C5C5C"/>
	</radialGradient>
	<path fill="url(#SVGID_9_)" d="M57.103,17.592c0.006,0.027,0.014,0.053,0.018,0.082c0-0.156-0.047-0.33-0.069-0.486
		c-0.019-0.129-0.027-0.264-0.056-0.393c-0.027-0.248-0.166-0.5-0.34-0.676c-0.512-0.551-1.344-0.725-2.065-0.725
		c-0.233,0-52.071-0.006-52.159,0.002C1.854,15.369,1.18,15.57,0.71,15.912c-0.311,0.232-0.527,0.549-0.582,0.939
		c-0.039,0.273-0.078,0.916-0.117,1.189c0.002-0.01,0.004-0.021,0.006-0.031c-0.002,0.014-0.004,0.027-0.006,0.043
		c0.084-0.59,0.617-0.982,1.134-1.182c0.408-0.156,0.849-0.219,1.284-0.219c0.068,0,52.086,0,52.32,0
		c0.162,0,0.323,0.01,0.483,0.027c0.771,0.098,1.807,0.479,1.935,1.373C57.167,17.904,57.126,17.74,57.103,17.592z"/>
</g>
</svg>
